{
  "items": [
    {
      "album": {
        "album_type": "ALBUM",
        "artists": [
          {
            "external_urls": {
              "spotify": "https://open.spotify.com/artist/2feDdbD5araYcm6JhFHHw7"
            },
            "href": "https://api.spotify.com/v1/artists/2feDdbD5araYcm6JhFHHw7",
            "id": "2feDdbD5araYcm6JhFHHw7",
            "name": "Labrinth",
            "type": "artist",
            "uri": "spotify:artist:2feDdbD5araYcm6JhFHHw7"
          }
        ],
        "available_markets": [
          "AD",
          "AE",
          "AR",
          "AT",
          "AU",
          "BE",
          "BG",
          "BH",
          "BO",
          "BR",
          "CA",
          "CH",
          "CL",
          "CO",
          "CR",
          "CY",
          "CZ",
          "DE",
          "DK",
          "DO",
          "DZ",
          "EC",
          "EE",
          "EG",
          "ES",
          "FI",
          "FR",
          "GB",
          "GR",
          "GT",
          "HK",
          "HN",
          "HU",
          "ID",
          "IE",
          "IL",
          "IN",
          "IS",
          "IT",
          "JO",
          "JP",
          "KW",
          "LB",
          "LI",
          "LT",
          "LU",
          "LV",
          "MA",
          "MC",
          "MT",
          "MX",
          "MY",
          "NI",
          "NL",
          "NO",
          "NZ",
          "OM",
          "PA",
          "PE",
          "PH",
          "PL",
          "PS",
          "PT",
          "PY",
          "QA",
          "RO",
          "SA",
          "SE",
          "SG",
          "SK",
          "SV",
          "TH",
          "TN",
          "TR",
          "TW",
          "US",
          "UY",
          "VN",
          "ZA"
        ],
        "external_urls": {
          "spotify": "https://open.spotify.com/album/5kGUy2eONqGocT26fvKo9v"
        },
        "href": "https://api.spotify.com/v1/albums/5kGUy2eONqGocT26fvKo9v",
        "id": "5kGUy2eONqGocT26fvKo9v",
        "images": [
          {
            "height": 640,
            "url": "https://i.scdn.co/image/ab67616d0000b2731df535f5089e544a3cc86069",
            "width": 640
          },
          {
            "height": 300,
            "url": "https://i.scdn.co/image/ab67616d00001e021df535f5089e544a3cc86069",
            "width": 300
          },
          {
            "height": 64,
            "url": "https://i.scdn.co/image/ab67616d000048511df535f5089e544a3cc86069",
            "width": 64
          }
        ],
        "name": "Ends & Begins",
        "release_date": "2023-04-28",
        "release_date_precision": "day",
        "total_tracks": 10,
        "type": "album",
        "uri": "spotify:album:5kGUy2eONqGocT26fvKo9v"
      },
      "artists": [
        {
          "external_urls": {
            "spotify": "https://open.spotify.com/artist/2feDdbD5araYcm6JhFHHw7"
          },
          "href": "https://api.spotify.com/v1/artists/2feDdbD5araYcm6JhFHHw7",
          "id": "2feDdbD5araYcm6JhFHHw7",
          "name": "Labrinth",
          "type": "artist",
          "uri": "spotify:artist:2feDdbD5araYcm6JhFHHw7"
        }
      ],
      "available_markets": [
        "AD",
        "AE",
        "AR",
        "AT",
        "AU",
        "BE",
        "BG",
        "BH",
        "BO",
        "BR",
        "CA",
        "CH",
        "CL",
        "CO",
        "CR",
        "CY",
        "CZ",
        "DE",
        "DK",
        "DO",
        "DZ",
        "EC",
        "EE",
        "EG",
        "ES",
        "FI",
        "FR",
        "GB",
        "GR",
        "GT",
        "HK",
        "HN",
        "HU",
        "ID",
        "IE",
        "IL",
        "IN",
        "IS",
        "IT",
        "JO",
        "JP",
        "KW",
        "LB",
        "LI",
        "LT",
        "LU",
        "LV",
        "MA",
        "MC",
        "MT",
        "MX",
        "MY",
        "NI",
        "NL",
        "NO",
        "NZ",
        "OM",
        "PA",
        "PE",
        "PH",
        "PL",
        "PS",
        "PT",
        "PY",
        "QA",
        "RO",
        "SA",
        "SE",
        "SG",
        "SK",
        "SV",
        "TH",
        "TN",
        "TR",
        "TW",
        "US",
        "UY",
        "VN",
        "ZA"
      ],
      "disc_number": 1,
      "duration_ms": 197465,
      "explicit": true,
      "external_ids": {
        "isrc": "USSM12208720"
      },
      "external_urls": {
        "spotify": "https://open.spotify.com/track/3l3iCfpZsxbxWJhYoiQNkD"
      },
      "href": "https://api.spotify.com/v1/tracks/3l3iCfpZsxbxWJhYoiQNkD",
      "id": "3l3iCfpZsxbxWJhYoiQNkD",
      "is_local": false,
      "name": "The Feels",
      "popularity": 79,
      "preview_url": "https://p.scdn.co/mp3-preview/b4a5c65c995d9a5a1a49035536533d9867fd6f75?cid=f7c38ca2d50e4513abce95d711e3c7c3",
      "track_number": 1,
      "type": "track",
      "uri": "spotify:track:3l3iCfpZsxbxWJhYoiQNkD"
    },
    {
      "album": {
        "album_type": "SINGLE",
        "artists": [
          {
            "external_urls": {
              "spotify": "https://open.spotify.com/artist/3Xt3RrJMFv5SZkCfUE8C1J"
            },
            "href": "https://api.spotify.com/v1/artists/3Xt3RrJMFv5SZkCfUE8C1J",
            "id": "3Xt3RrJMFv5SZkCfUE8C1J",
            "name": "Kim Petras",
            "type": "artist",
            "uri": "spotify:artist:3Xt3RrJMFv5SZkCfUE8C1J"
          },
          {
            "external_urls": {
              "spotify": "https://open.spotify.com/artist/0hCNtLu0JehylgoiP8L4Gh"
            },
            "href": "https://api.spotify.com/v1/artists/0hCNtLu0JehylgoiP8L4Gh",
            "id": "0hCNtLu0JehylgoiP8L4Gh",
            "name": "Nicki Minaj",
            "type": "artist",
            "uri": "spotify:artist:0hCNtLu0JehylgoiP8L4Gh"
          }
        ],
        "available_markets": [
          "AD",
          "AE",
          "AR",
          "AT",
          "AU",
          "BE",
          "BG",
          "BH",
          "BO",
          "BR",
          "CA",
          "CH",
          "CL",
          "CO",
          "CR",
          "CY",
          "CZ",
          "DE",
          "DK",
          "DO",
          "DZ",
          "EC",
          "EE",
          "EG",
          "ES",
          "FI",
          "FR",
          "GB",
          "GR",
          "GT",
          "HK",
          "HN",
          "HU",
          "ID",
          "IE",
          "IL",
          "IN",
          "IS",
          "IT",
          "JO",
          "JP",
          "KW",
          "LB",
          "LI",
          "LT",
          "LU",
          "LV",
          "MA",
          "MC",
          "MT",
          "MX",
          "MY",
          "NI",
          "NL",
          "NO",
          "NZ",
          "OM",
          "PA",
          "PE",
          "PH",
          "PL",
          "PS",
          "PT",
          "PY",
          "QA",
          "RO",
          "SA",
          "SE",
          "SG",
          "SK",
          "SV",
          "TH",
          "TN",
          "TR",
          "TW",
          "US",
          "UY",
          "VN",
          "ZA"
        ],
        "external_urls": {
          "spotify": "https://open.spotify.com/album/5YdIiv5WLNbaONCyGIDszz"
        },
        "href": "https://api.spotify.com/v1/albums/5YdIiv5WLNbaONCyGIDszz",
        "id": "5YdIiv5WLNbaONCyGIDszz",
        "images": [
          {
            "height": 640,
            "url": "https://i.scdn.co/image/ab67616d0000b273562d621d50652074690a0f40",
            "width": 640
          },
          {
            "height": 300,
            "url": "https://i.scdn.co/image/ab67616d00001e02562d621d50652074690a0f40",
            "width": 300
          },
          {
            "height": 64,
            "url": "https://i.scdn.co/image/ab67616d00004851562d621d50652074690a0f40",
            "width": 64
          }
        ],
        "name": "Alone",
        "release_date": "2023-04-21",
        "release_date_precision": "day",
        "total_tracks": 1,
        "type": "album",
        "uri": "spotify:album:5YdIiv5WLNbaONCyGIDszz"
      },
      "artists": [
        {
          "external_urls": {
            "spotify": "https://open.spotify.com/artist/3Xt3RrJMFv5SZkCfUE8C1J"
          },
          "href": "https://api.spotify.com/v1/artists/3Xt3RrJMFv5SZkCfUE8C1J",
          "id": "3Xt3RrJMFv5SZkCfUE8C1J",
          "name": "Kim Petras",
          "type": "artist",
          "uri": "spotify:artist:3Xt3RrJMFv5SZkCfUE8C1J"
        },
        {
          "external_urls": {
            "spotify": "https://open.spotify.com/artist/0hCNtLu0JehylgoiP8L4Gh"
          },
          "href": "https://api.spotify.com/v1/artists/0hCNtLu0JehylgoiP8L4Gh",
          "id": "0hCNtLu0JehylgoiP8L4Gh",
          "name": "Nicki Minaj",
          "type": "artist",
          "uri": "spotify:artist:0hCNtLu0JehylgoiP8L4Gh"
        }
      ],
      "available_markets": [
        "AD",
        "AE",
        "AR",
        "AT",
        "AU",
        "BE",
        "BG",
        "BH",
        "BO",
        "BR",
        "CA",
        "CH",
        "CL",
        "CO",
        "CR",
        "CY",
        "CZ",
        "DE",
        "DK",
        "DO",
        "DZ",
        "EC",
        "EE",
        "EG",
        "ES",
        "FI",
        "FR",
        "GB",
        "GR",
        "GT",
        "HK",
        "HN",
        "HU",
        "ID",
        "IE",
        "IL",
        "IN",
        "IS",
        "IT",
        "JO",
        "JP",
        "KW",
        "LB",
        "LI",
        "LT",
        "LU",
        "LV",
        "MA",
        "MC",
        "MT",
        "MX",
        "MY",
        "NI",
        "NL",
        "NO",
        "NZ",
        "OM",
        "PA",
        "PE",
        "PH",
        "PL",
        "PS",
        "PT",
        "PY",
        "QA",
        "RO",
        "SA",
        "SE",
        "SG",
        "SK",
        "SV",
        "TH",
        "TN",
        "TR",
        "TW",
        "US",
        "UY",
        "VN",
        "ZA"
      ],
      "disc_number": 1,
      "duration_ms": 185113,
      "explicit": true,
      "external_ids": {
        "isrc": "USUG12302442"
      },
      "external_urls": {
        "spotify": "https://open.spotify.com/track/7kOletJ0Q5H4MWe7cfeZXP"
      },
      "href": "https://api.spotify.com/v1/tracks/7kOletJ0Q5H4MWe7cfeZXP",
      "id": "7kOletJ0Q5H4MWe7cfeZXP",
      "is_local": false,
      "name": "Alone (with Nicki Minaj)",
      "popularity": 81,
      "preview_url": "https://p.scdn.co/mp3-preview/e390b75ea0cd36fe5097316ecd8c5b380cc9fe41?cid=f7c38ca2d50e4513abce95d711e3c7c3",
      "track_number": 1,
      "type": "track",
      "uri": "spotify:track:7kOletJ0Q5H4MWe7cfeZXP"
    },
    {
      "album": {
        "album_type": "ALBUM",
        "artists": [
          {
            "external_urls": {
              "spotify": "https://open.spotify.com/artist/3tVQdUvClmAT7URs9V3rsp"
            },
            "href": "https://api.spotify.com/v1/artists/3tVQdUvClmAT7URs9V3rsp",
            "id": "3tVQdUvClmAT7URs9V3rsp",
            "name": "Wizkid",
            "type": "artist",
            "uri": "spotify:artist:3tVQdUvClmAT7URs9V3rsp"
          }
        ],
        "available_markets": [
          "AD",
          "AE",
          "AR",
          "AT",
          "AU",
          "BE",
          "BG",
          "BH",
          "BO",
          "BR",
          "CA",
          "CH",
          "CL",
          "CO",
          "CR",
          "CY",
          "CZ",
          "DE",
          "DK",
          "DO",
          "DZ",
          "EC",
          "EE",
          "EG",
          "ES",
          "FI",
          "FR",
          "GB",
          "GR",
          "GT",
          "HK",
          "HN",
          "HU",
          "ID",
          "IE",
          "IL",
          "IN",
          "IS",
          "IT",
          "JO",
          "JP",
          "KW",
          "LB",
          "LI",
          "LT",
          "LU",
          "LV",
          "MA",
          "MC",
          "MT",
          "MX",
          "MY",
          "NI",
          "NL",
          "NO",
          "NZ",
          "OM",
          "PA",
          "PE",
          "PH",
          "PL",
          "PS",
          "PT",
          "PY",
          "QA",
          "RO",
          "SA",
          "SE",
          "SG",
          "SK",
          "SV",
          "TH",
          "TN",
          "TR",
          "TW",
          "US",
          "UY",
          "VN",
          "ZA"
        ],
        "external_urls": {
          "spotify": "https://open.spotify.com/album/73rKiFhHZatrwJL0B1F6hY"
        },
        "href": "https://api.spotify.com/v1/albums/73rKiFhHZatrwJL0B1F6hY",
        "id": "73rKiFhHZatrwJL0B1F6hY",
        "images": [
          {
            "height": 640,
            "url": "https://i.scdn.co/image/ab67616d0000b273e944c571fca9ea470ebb5821",
            "width": 640
          },
          {
            "height": 300,
            "url": "https://i.scdn.co/image/ab67616d00001e02e944c571fca9ea470ebb5821",
            "width": 300
          },
          {
            "height": 64,
            "url": "https://i.scdn.co/image/ab67616d00004851e944c571fca9ea470ebb5821",
            "width": 64
          }
        ],
        "name": "More Love, Less Ego",
        "release_date": "2022-11-11",
        "release_date_precision": "day",
        "total_tracks": 13,
        "type": "album",
        "uri": "spotify:album:73rKiFhHZatrwJL0B1F6hY"
      },
      "artists": [
        {
          "external_urls": {
            "spotify": "https://open.spotify.com/artist/3tVQdUvClmAT7URs9V3rsp"
          },
          "href": "https://api.spotify.com/v1/artists/3tVQdUvClmAT7URs9V3rsp",
          "id": "3tVQdUvClmAT7URs9V3rsp",
          "name": "Wizkid",
          "type": "artist",
          "uri": "spotify:artist:3tVQdUvClmAT7URs9V3rsp"
        },
        {
          "external_urls": {
            "spotify": "https://open.spotify.com/artist/3ZpEKRjHaHANcpk10u6Ntq"
          },
          "href": "https://api.spotify.com/v1/artists/3ZpEKRjHaHANcpk10u6Ntq",
          "id": "3ZpEKRjHaHANcpk10u6Ntq",
          "name": "Ayra Starr",
          "type": "artist",
          "uri": "spotify:artist:3ZpEKRjHaHANcpk10u6Ntq"
        }
      ],
      "available_markets": [
        "AD",
        "AE",
        "AR",
        "AT",
        "AU",
        "BE",
        "BG",
        "BH",
        "BO",
        "BR",
        "CA",
        "CH",
        "CL",
        "CO",
        "CR",
        "CY",
        "CZ",
        "DE",
        "DK",
        "DO",
        "DZ",
        "EC",
        "EE",
        "EG",
        "ES",
        "FI",
        "FR",
        "GB",
        "GR",
        "GT",
        "HK",
        "HN",
        "HU",
        "ID",
        "IE",
        "IL",
        "IN",
        "IS",
        "IT",
        "JO",
        "JP",
        "KW",
        "LB",
        "LI",
        "LT",
        "LU",
        "LV",
        "MA",
        "MC",
        "MT",
        "MX",
        "MY",
        "NI",
        "NL",
        "NO",
        "NZ",
        "OM",
        "PA",
        "PE",
        "PH",
        "PL",
        "PS",
        "PT",
        "PY",
        "QA",
        "RO",
        "SA",
        "SE",
        "SG",
        "SK",
        "SV",
        "TH",
        "TN",
        "TR",
        "TW",
        "US",
        "UY",
        "VN",
        "ZA"
      ],
      "disc_number": 1,
      "duration_ms": 187906,
      "explicit": false,
      "external_ids": {
        "isrc": "USRC12203449"
      },
      "external_urls": {
        "spotify": "https://open.spotify.com/track/1DA2ADZs6O28y2rmdmpekw"
      },
      "href": "https://api.spotify.com/v1/tracks/1DA2ADZs6O28y2rmdmpekw",
      "id": "1DA2ADZs6O28y2rmdmpekw",
      "is_local": false,
      "name": "2 Sugar (feat. Ayra Starr)",
      "popularity": 73,
      "preview_url": "https://p.scdn.co/mp3-preview/d39f8d61726b6449f07d2f8d0ae17e6c2487ccf0?cid=f7c38ca2d50e4513abce95d711e3c7c3",
      "track_number": 4,
      "type": "track",
      "uri": "spotify:track:1DA2ADZs6O28y2rmdmpekw"
    },
    {
      "album": {
        "album_type": "ALBUM",
        "artists": [
          {
            "external_urls": {
              "spotify": "https://open.spotify.com/artist/3tVQdUvClmAT7URs9V3rsp"
            },
            "href": "https://api.spotify.com/v1/artists/3tVQdUvClmAT7URs9V3rsp",
            "id": "3tVQdUvClmAT7URs9V3rsp",
            "name": "Wizkid",
            "type": "artist",
            "uri": "spotify:artist:3tVQdUvClmAT7URs9V3rsp"
          }
        ],
        "available_markets": [
          "AD",
          "AE",
          "AR",
          "AT",
          "AU",
          "BE",
          "BG",
          "BH",
          "BO",
          "BR",
          "CA",
          "CH",
          "CL",
          "CO",
          "CR",
          "CY",
          "CZ",
          "DE",
          "DK",
          "DO",
          "DZ",
          "EC",
          "EE",
          "EG",
          "ES",
          "FI",
          "FR",
          "GB",
          "GR",
          "GT",
          "HK",
          "HN",
          "HU",
          "ID",
          "IE",
          "IL",
          "IN",
          "IS",
          "IT",
          "JO",
          "JP",
          "KW",
          "LB",
          "LI",
          "LT",
          "LU",
          "LV",
          "MA",
          "MC",
          "MT",
          "MX",
          "MY",
          "NI",
          "NL",
          "NO",
          "NZ",
          "OM",
          "PA",
          "PE",
          "PH",
          "PL",
          "PS",
          "PT",
          "PY",
          "QA",
          "RO",
          "SA",
          "SE",
          "SG",
          "SK",
          "SV",
          "TH",
          "TN",
          "TR",
          "TW",
          "US",
          "UY",
          "VN",
          "ZA"
        ],
        "external_urls": {
          "spotify": "https://open.spotify.com/album/73rKiFhHZatrwJL0B1F6hY"
        },
        "href": "https://api.spotify.com/v1/albums/73rKiFhHZatrwJL0B1F6hY",
        "id": "73rKiFhHZatrwJL0B1F6hY",
        "images": [
          {
            "height": 640,
            "url": "https://i.scdn.co/image/ab67616d0000b273e944c571fca9ea470ebb5821",
            "width": 640
          },
          {
            "height": 300,
            "url": "https://i.scdn.co/image/ab67616d00001e02e944c571fca9ea470ebb5821",
            "width": 300
          },
          {
            "height": 64,
            "url": "https://i.scdn.co/image/ab67616d00004851e944c571fca9ea470ebb5821",
            "width": 64
          }
        ],
        "name": "More Love, Less Ego",
        "release_date": "2022-11-11",
        "release_date_precision": "day",
        "total_tracks": 13,
        "type": "album",
        "uri": "spotify:album:73rKiFhHZatrwJL0B1F6hY"
      },
      "artists": [
        {
          "external_urls": {
            "spotify": "https://open.spotify.com/artist/3tVQdUvClmAT7URs9V3rsp"
          },
          "href": "https://api.spotify.com/v1/artists/3tVQdUvClmAT7URs9V3rsp",
          "id": "3tVQdUvClmAT7URs9V3rsp",
          "name": "Wizkid",
          "type": "artist",
          "uri": "spotify:artist:3tVQdUvClmAT7URs9V3rsp"
        }
      ],
      "available_markets": [
        "AD",
        "AE",
        "AR",
        "AT",
        "AU",
        "BE",
        "BG",
        "BH",
        "BO",
        "BR",
        "CA",
        "CH",
        "CL",
        "CO",
        "CR",
        "CY",
        "CZ",
        "DE",
        "DK",
        "DO",
        "DZ",
        "EC",
        "EE",
        "EG",
        "ES",
        "FI",
        "FR",
        "GB",
        "GR",
        "GT",
        "HK",
        "HN",
        "HU",
        "ID",
        "IE",
        "IL",
        "IN",
        "IS",
        "IT",
        "JO",
        "JP",
        "KW",
        "LB",
        "LI",
        "LT",
        "LU",
        "LV",
        "MA",
        "MC",
        "MT",
        "MX",
        "MY",
        "NI",
        "NL",
        "NO",
        "NZ",
        "OM",
        "PA",
        "PE",
        "PH",
        "PL",
        "PS",
        "PT",
        "PY",
        "QA",
        "RO",
        "SA",
        "SE",
        "SG",
        "SK",
        "SV",
        "TH",
        "TN",
        "TR",
        "TW",
        "US",
        "UY",
        "VN",
        "ZA"
      ],
      "disc_number": 1,
      "duration_ms": 181840,
      "explicit": false,
      "external_ids": {
        "isrc": "USRC12203521"
      },
      "external_urls": {
        "spotify": "https://open.spotify.com/track/0sHyVWNc3nfxAYOTOwOlPx"
      },
      "href": "https://api.spotify.com/v1/tracks/0sHyVWNc3nfxAYOTOwOlPx",
      "id": "0sHyVWNc3nfxAYOTOwOlPx",
      "is_local": false,
      "name": "Balance",
      "popularity": 59,
      "preview_url": "https://p.scdn.co/mp3-preview/13110ab8754ae4b96acab5f1a0f485c5dcf3babd?cid=f7c38ca2d50e4513abce95d711e3c7c3",
      "track_number": 2,
      "type": "track",
      "uri": "spotify:track:0sHyVWNc3nfxAYOTOwOlPx"
    },
    {
      "album": {
        "album_type": "SINGLE",
        "artists": [
          {
            "external_urls": {
              "spotify": "https://open.spotify.com/artist/33KPqwPnEKJY6Tm9WfJQKq"
            },
            "href": "https://api.spotify.com/v1/artists/33KPqwPnEKJY6Tm9WfJQKq",
            "id": "33KPqwPnEKJY6Tm9WfJQKq",
            "name": "TAR1Q",
            "type": "artist",
            "uri": "spotify:artist:33KPqwPnEKJY6Tm9WfJQKq"
          }
        ],
        "available_markets": [
          "AD",
          "AE",
          "AR",
          "AT",
          "AU",
          "BE",
          "BG",
          "BH",
          "BO",
          "BR",
          "CA",
          "CH",
          "CL",
          "CO",
          "CR",
          "CY",
          "CZ",
          "DE",
          "DK",
          "DO",
          "DZ",
          "EC",
          "EE",
          "EG",
          "ES",
          "FI",
          "FR",
          "GB",
          "GR",
          "GT",
          "HK",
          "HN",
          "HU",
          "ID",
          "IE",
          "IL",
          "IN",
          "IS",
          "IT",
          "JO",
          "JP",
          "KW",
          "LB",
          "LI",
          "LT",
          "LU",
          "LV",
          "MA",
          "MC",
          "MT",
          "MX",
          "MY",
          "NI",
          "NL",
          "NO",
          "NZ",
          "OM",
          "PA",
          "PE",
          "PH",
          "PL",
          "PS",
          "PT",
          "PY",
          "QA",
          "RO",
          "SA",
          "SE",
          "SG",
          "SK",
          "SV",
          "TH",
          "TN",
          "TR",
          "TW",
          "US",
          "UY",
          "VN",
          "ZA"
        ],
        "external_urls": {
          "spotify": "https://open.spotify.com/album/0eYfLrBMobCVn4ZCaGV1GA"
        },
        "href": "https://api.spotify.com/v1/albums/0eYfLrBMobCVn4ZCaGV1GA",
        "id": "0eYfLrBMobCVn4ZCaGV1GA",
        "images": [
          {
            "height": 640,
            "url": "https://i.scdn.co/image/ab67616d0000b273880cfa2cc5dc8dfa6e69b923",
            "width": 640
          },
          {
            "height": 300,
            "url": "https://i.scdn.co/image/ab67616d00001e02880cfa2cc5dc8dfa6e69b923",
            "width": 300
          },
          {
            "height": 64,
            "url": "https://i.scdn.co/image/ab67616d00004851880cfa2cc5dc8dfa6e69b923",
            "width": 64
          }
        ],
        "name": "PrEttY Like",
        "release_date": "2023-04-26",
        "release_date_precision": "day",
        "total_tracks": 1,
        "type": "album",
        "uri": "spotify:album:0eYfLrBMobCVn4ZCaGV1GA"
      },
      "artists": [
        {
          "external_urls": {
            "spotify": "https://open.spotify.com/artist/33KPqwPnEKJY6Tm9WfJQKq"
          },
          "href": "https://api.spotify.com/v1/artists/33KPqwPnEKJY6Tm9WfJQKq",
          "id": "33KPqwPnEKJY6Tm9WfJQKq",
          "name": "TAR1Q",
          "type": "artist",
          "uri": "spotify:artist:33KPqwPnEKJY6Tm9WfJQKq"
        }
      ],
      "available_markets": [
        "AD",
        "AE",
        "AR",
        "AT",
        "AU",
        "BE",
        "BG",
        "BH",
        "BO",
        "BR",
        "CA",
        "CH",
        "CL",
        "CO",
        "CR",
        "CY",
        "CZ",
        "DE",
        "DK",
        "DO",
        "DZ",
        "EC",
        "EE",
        "EG",
        "ES",
        "FI",
        "FR",
        "GB",
        "GR",
        "GT",
        "HK",
        "HN",
        "HU",
        "ID",
        "IE",
        "IL",
        "IN",
        "IS",
        "IT",
        "JO",
        "JP",
        "KW",
        "LB",
        "LI",
        "LT",
        "LU",
        "LV",
        "MA",
        "MC",
        "MT",
        "MX",
        "MY",
        "NI",
        "NL",
        "NO",
        "NZ",
        "OM",
        "PA",
        "PE",
        "PH",
        "PL",
        "PS",
        "PT",
        "PY",
        "QA",
        "RO",
        "SA",
        "SE",
        "SG",
        "SK",
        "SV",
        "TH",
        "TN",
        "TR",
        "TW",
        "US",
        "UY",
        "VN",
        "ZA"
      ],
      "disc_number": 1,
      "duration_ms": 166950,
      "explicit": false,
      "external_ids": {
        "isrc": "QMEU32207123"
      },
      "external_urls": {
        "spotify": "https://open.spotify.com/track/2lgeehwv2ThyBEQ8kHKFCn"
      },
      "href": "https://api.spotify.com/v1/tracks/2lgeehwv2ThyBEQ8kHKFCn",
      "id": "2lgeehwv2ThyBEQ8kHKFCn",
      "is_local": false,
      "name": "PrEttY Like",
      "popularity": 45,
      "preview_url": "https://p.scdn.co/mp3-preview/58f15d9c7fbca5348cc9c76ef688b7aaca00e29e?cid=f7c38ca2d50e4513abce95d711e3c7c3",
      "track_number": 1,
      "type": "track",
      "uri": "spotify:track:2lgeehwv2ThyBEQ8kHKFCn"
    }
  ],
  "total": 50,
  "limit": 5,
  "offset": 0,
  "href": "https://api.spotify.com/v1/me/top/tracks?limit=5&offset=0&time_range=short_term",
  "next": "https://api.spotify.com/v1/me/top/tracks?limit=5&offset=5&time_range=short_term",
  "previous": null
}
